[
    {
        "Id_Error": 3000,
        "id": 4000,
        "name": "Descripcion_Solucion_4000",
        "Frecuencia_Solucion": 0,
        "Estado_Error": true
    },
    {
        "Id_Error": 3001,
        "id": 4001,
        "name": "Descripcion_Solucion_4001",
        "Frecuencia_Solucion": 0,
        "Estado_Error": true
    },
    {
        "Id_Error": 3002,
        "id": 4002,
        "name": "Descripcion_Solucion_4002",
        "Frecuencia_Solucion": 0,
        "Estado_Error": true
    },
    {
        "Id_Error": 3003,
        "id": 4003,
        "name": "Descripcion_Solucion_4003",
        "Frecuencia_Solucion": 0,
        "Estado_Error": true
    },
    {
        "Id_Error": 3004,
        "id": 4004,
        "name": "Descripcion_Solucion_4004",
        "Frecuencia_Solucion": 0,
        "Estado_Error": true
    },
    {
        "Id_Error": 3005,
        "id": 4005,
        "name": "Descripcion_Solucion_4005",
        "Frecuencia_Solucion": 0,
        "Estado_Error": true
    },
    {
        "Id_Error": 3006,
        "id": 4006,
        "name": "Descripcion_Solucion_4006",
        "Frecuencia_Solucion": 0,
        "Estado_Error": true
    },
    {
        "Id_Error": 3007,
        "id": 4007,
        "name": "Descripcion_Solucion_4007",
        "Frecuencia_Solucion": 0,
        "Estado_Error": true
    },
    {
        "Id_Error": 3008,
        "id": 4008,
        "name": "Descripcion_Solucion_4008",
        "Frecuencia_Solucion": 0,
        "Estado_Error": true
    },
    {
        "Id_Error": 3009,
        "id": 4009,
        "name": "Descripcion_Solucion_4009",
        "Frecuencia_Solucion": 0,
        "Estado_Error": true
    },
    {
        "Id_Error": 3010,
        "id": 4010,
        "name": "Descripcion_Solucion_4010",
        "Frecuencia_Solucion": 0,
        "Estado_Error": true
    },
    {
        "Id_Error": 3011,
        "id": 4011,
        "name": "Descripcion_Solucion_4011",
        "Frecuencia_Solucion": 0,
        "Estado_Error": true
    },
    {
        "Id_Error": 3012,
        "id": 4012,
        "name": "Descripcion_Solucion_4012",
        "Frecuencia_Solucion": 0,
        "Estado_Error": true
    },
    {
        "Id_Error": 3013,
        "id": 4013,
        "name": "Descripcion_Solucion_4013",
        "Frecuencia_Solucion": 0,
        "Estado_Error": true
    },
    {
        "Id_Error": 3014,
        "id": 4014,
        "name": "Descripcion_Solucion_4014",
        "Frecuencia_Solucion": 0,
        "Estado_Error": true
    },
    {
        "Id_Error": 3015,
        "id": 4015,
        "name": "Descripcion_Solucion_4015",
        "Frecuencia_Solucion": 0,
        "Estado_Error": true
    },
    {
        "Id_Error": 3016,
        "id": 4016,
        "name": "Descripcion_Solucion_4016",
        "Frecuencia_Solucion": 0,
        "Estado_Error": true
    },
    {
        "Id_Error": 3017,
        "id": 4017,
        "name": "Descripcion_Solucion_4017",
        "Frecuencia_Solucion": 0,
        "Estado_Error": true
    },
    {
        "Id_Error": 3018,
        "id": 4018,
        "name": "Descripcion_Solucion_4018",
        "Frecuencia_Solucion": 0,
        "Estado_Error": true
    },
    {
        "Id_Error": 3019,
        "id": 4019,
        "name": "Descripcion_Solucion_4019",
        "Frecuencia_Solucion": 0,
        "Estado_Error": true
    }
]